<?xml version="1.0" encoding="UTF-8" standalone="no"?>
<svg
   width="32"
   height="32"
   viewBox="0 0 8.7313614 9.1581897"
   version="1.1"
   id="svg8"
   xmlns="http://www.w3.org/2000/svg"
   xmlns:svg="http://www.w3.org/2000/svg"
   xmlns:rdf="http://www.w3.org/1999/02/22-rdf-syntax-ns#"
   xmlns:cc="http://creativecommons.org/ns#"
   xmlns:dc="http://purl.org/dc/elements/1.1/">
  <defs
     id="defs2" />
  <metadata
     id="metadata5">
    <rdf:RDF>
      <cc:Work
         rdf:about="">
        <dc:format>image/svg+xml</dc:format>
        <dc:type
           rdf:resource="http://purl.org/dc/dcmitype/StillImage" />
        <dc:title />
      </cc:Work>
    </rdf:RDF>
  </metadata>
  <g
     id="layer1"
     transform="translate(-155.0518,-102.17805)">
    <g
       id="g212"
       transform="matrix(1.0458238,0,0,1.0528486,-7.3051192,-5.8839619)">
      <path
         style="fill:#a826cb;fill-opacity:1;stroke:none;stroke-width:0.136739px;stroke-linecap:butt;stroke-linejoin:miter;stroke-opacity:1"
         d="m 158.93304,106.79584 c -0.0294,0.13058 -0.12163,0.0648 -0.17965,-0.0292 v 0 c -0.14816,-0.14595 -0.23847,-0.20714 -0.27303,-0.24985 -0.0352,-0.0435 -0.0181,-0.0685 0.0127,-0.17463 -0.008,-0.0213 -0.015,-0.0424 -0.0225,-0.0632 v 0 c -0.12781,-0.36281 -0.15454,-0.56942 -0.11111,-0.6258 -0.0148,-0.0332 -0.0249,-0.0582 -0.0389,-0.0803 -0.0419,-0.0869 -0.0848,-0.16992 -0.12542,-0.25802 -0.10123,-0.3366 -0.11753,-0.53549 -0.0877,-0.60385 0.013,-0.0294 0.0345,-0.0356 0.0626,-0.0217 0.11904,0.0604 0.42645,0.59881 0.62202,1.21613 -0.0167,0.076 -0.0362,0.0917 -0.008,0.24216 0.003,0.0138 0.006,0.0287 0.009,0.0448 0.002,0.0146 0.006,0.0318 0.009,0.0481 0.0392,0.087 0.075,0.17889 0.10634,0.27302 0.0497,0.0852 0.0792,0.13865 0.0941,0.168 0.0109,0.0314 0.0199,0.0596 -0.01,0.003 -0.0208,-0.027 -0.0573,-0.0761 -0.11285,-0.14717 0.003,0.0285 0.0178,0.0721 0.0257,0.10535 0.006,0.0241 0.0114,0.0461 0.016,0.0663 0.0305,0.21329 0.0263,0.14292 0.0271,0.1399 0,-0.003 0.006,0.005 0.006,-9.3e-4 0,-0.006 -0.003,-0.0278 -0.002,-0.0224 0.002,0.0109 0.0118,0.0541 -0.0199,-0.0262 v -0.004 z m -0.4376,-0.71024 c -0.002,9.3e-4 -0.002,-0.0198 -0.008,-0.0357 -0.0401,-0.0486 -0.081,-0.0982 -0.12566,-0.1507 0.0208,0.0424 0.0407,0.10023 0.0618,0.13446 0.0515,0.0812 0.067,0.0827 0.0656,0.0446 3e-5,3e-5 0.006,0.007 0.006,0.007 z m 2.87409,-2.15035 c -0.0279,-0.0618 -0.0213,-0.10108 0.0364,-0.10207 0.24036,0.16417 0.196,0.17925 0.15357,0.0273 0.1336,-0.007 0.41272,0.23742 0.59973,0.52692 0.18628,0.28835 0.2504,0.56626 0.13377,0.53217 -0.18642,-0.21319 -0.14347,-0.18659 -0.1109,-0.007 -0.0993,-0.0349 -0.26334,-0.24166 -0.42222,-0.44079 -0.15394,-0.19296 -0.34223,-0.42784 -0.3906,-0.53675 1e-4,2e-5 1.9e-4,4e-5 0,5e-5 z m 0.0309,2.61304 c 0.12501,-0.15496 0.22032,-0.0499 0.34339,-0.0928 0.0576,-0.0194 0.11628,-0.0608 0.16904,-0.13045 0.0586,-0.0774 0.0979,-0.19597 0.13921,-0.31056 0.2172,-0.0316 0.50306,0.26031 0.53759,0.88395 0.10201,-0.21708 0.25681,-0.23923 0.22364,0.24714 0.18853,-0.46715 0.27101,-0.96757 0.26404,-1.45724 -0.012,-0.42418 -0.0844,-0.82145 -0.18095,-1.18239 -0.0351,-0.13055 0.065,-0.0423 0.21426,0.20705 0.15486,0.25858 0.27698,0.55667 0.35935,0.83763 0.006,0.0192 0.0109,0.0387 0.0157,0.0584 0.0869,0.38372 0.0294,0.76645 0.0213,1.13416 -0.009,0.41348 0.0208,0.59029 0.0141,0.8284 0.11213,-0.25902 0.20045,-0.52048 0.26206,-0.778 -0.0306,0.57872 -0.17061,1.03766 -0.28057,1.32411 0,0.01 0,0.0197 -0.002,0.0295 -0.019,0.22866 -0.0582,0.51422 -0.22866,0.87456 -0.38249,0.64417 -0.91383,1.15417 -1.5182,1.50315 -0.42949,0.27524 -0.96557,0.51088 -1.60177,0.6535 -0.56559,0.14049 -1.21258,0.0762 -1.84947,-0.16294 v 0 c -0.74164,-0.36173 -1.14217,-0.82116 -1.34117,-1.20571 -0.0532,-0.0969 -0.0989,-0.1895 -0.13807,-0.27721 -0.37849,-0.36352 -0.69049,-0.74079 -0.94077,-1.05386 0.0896,0.051 0.10977,0.0212 0.12633,0.0259 0.0167,0.005 0.0256,0.0416 0.11607,0.23757 -0.064,-0.1392 -0.11829,-0.27195 -0.16452,-0.39652 v 0 c -0.35187,-0.97215 -0.25436,-1.80575 -0.0178,-2.39569 0.08,-0.22167 0.17722,-0.42176 0.28345,-0.6 0.0442,-0.0919 0.0927,-0.18099 0.1446,-0.26798 -0.22889,0.29259 -0.35488,0.41071 -0.29905,0.13184 0.0431,-0.21513 0.26512,-0.77493 0.88644,-1.32204 0.0507,-0.0476 0.10472,-0.0944 0.16222,-0.14007 -0.002,-0.002 0.0218,0.0324 0.22736,-0.13496 0.0721,-0.0563 0.0648,-0.068 0.0987,-0.10125 1.01076,-0.62005 1.82513,-0.43415 1.86483,-0.34934 0.0397,0.0848 -0.59135,0.0927 -1.42714,0.52831 0.52362,-0.22323 1.0639,-0.27035 1.53272,-0.22324 1.34091,0.29114 1.533,0.879 1.52334,1.08115 0.18116,0.14717 0.31383,0.31062 0.401,0.45789 v 0 c 0.42189,0.59022 0.0346,0.32772 -0.0695,0.23284 0,7e-4 0,2.3e-4 -0.0337,-0.0413 -0.0106,0.0315 -0.0485,0.0266 -0.11338,-0.009 -0.1148,-0.0638 -0.31187,-0.26477 -0.71398,-0.50905 -0.0181,-0.004 -0.0341,-0.008 -0.0488,-0.0109 0.009,0.0193 0.0624,0.0456 0.19867,0.18225 0.0232,0.0265 0.0353,0.0402 0.0584,0.0667 0.1094,0.10392 0.21431,0.22155 0.31166,0.33776 0.016,0.0192 0.0317,0.0383 0.0472,0.0571 0.15809,0.17873 0.30235,0.38021 0.39273,0.61159 0.036,0.16142 0.0348,0.2887 0.0237,0.36619 -0.0326,0.18991 -0.0909,0.12379 -0.13618,0.0139 -0.0998,-0.23016 -0.17365,-0.4793 -0.45198,-0.84684 -0.0466,-0.0643 -0.0952,-0.12999 -0.14616,-0.1967 0.0134,-0.047 0.0883,-0.0511 0.0404,-0.15319 -0.013,-0.0188 -0.007,-0.025 -0.0216,-0.0448 -0.0546,0.0361 -0.36491,-0.17551 -0.7045,-0.34298 0.12858,0.13926 -0.0312,0.0988 -0.36088,0.0649 0,0.001 -0.0479,-0.008 -0.0657,-0.0158 -0.016,0.039 -0.0933,0.0579 -0.20415,0.0827 -0.10118,0.0222 -0.20935,0.0451 -0.34289,0.0889 0.21503,0.003 0.25723,0.0879 0.22823,0.13827 0.0306,-0.0107 0.0654,-0.0193 0.10388,-0.0247 v 0 c 0.17966,-0.0333 0.40293,0.0121 0.6192,0.14574 0.028,-0.006 0.0599,-0.0119 0.0963,-0.0165 0.22499,-0.17294 0.22784,-0.20179 0.41189,0.12141 0.0404,0.0429 0.0779,0.0827 0.10782,0.12242 0.0448,0.0424 0.0855,0.0854 0.12223,0.12801 0.2945,0.33906 0.26589,0.64718 0.21649,0.70296 -0.0705,0.0796 -0.11663,-0.097 -0.33985,-0.38932 -0.0197,-0.0371 -0.0409,-0.0671 -0.0578,-0.098 -0.0121,-0.009 -0.0246,-0.0197 -0.0378,-0.031 -0.022,-0.0183 -0.0457,-0.0388 -0.0706,-0.06 0.019,0.0325 0.0306,0.061 0.0385,0.087 0.006,0.0249 0.008,0.0482 0.0102,0.0713 -0.007,0.0371 -0.005,0.083 -0.0242,0.10627 -0.0437,0.0502 -0.10111,0.0296 -0.19524,-0.001 v 0 c 0.004,0.001 -0.0197,-0.007 -0.0158,-0.006 -0.0171,-0.006 -0.0448,-0.0273 -0.0602,-0.0314 0,4.6e-4 -0.0157,-0.0106 -0.0155,-0.0109 0.0162,0.0108 0.0249,0.0146 0.0337,0.0196 0.016,0.0103 0.0325,0.0221 0.0495,0.0353 v 0 c 0.0734,0.0631 0.13863,0.15214 0.18796,0.238 0.0529,0.0914 0.0664,0.15576 0.0693,0.19518 0.007,0.0434 0.008,0.1099 -0.0174,0.21103 -0.0433,0.10727 -0.10641,0.17737 -0.15019,0.20841 v 0 c -0.0926,0.0732 -0.13304,0.0151 -0.14655,-0.0718 -0.0137,-0.0666 -0.0114,-0.14369 -0.0127,-0.22074 -0.0235,-0.0271 -0.0415,-0.0633 -0.0646,-0.087 v 0 c -0.0151,-0.0326 -0.0476,-0.0864 -0.0814,-0.16771 -0.0281,-0.0116 -0.0584,-0.0279 -0.0887,-0.0488 -0.26556,-0.16116 -0.38073,-0.30182 -0.54961,-0.43606 -0.0155,-0.0142 -0.0283,-0.0247 -0.0687,-0.0363 0,-2.3e-4 -0.002,-6.9e-4 -0.002,-9.3e-4 -0.10321,-0.10195 -0.2112,-0.14786 -0.0828,-0.24928 -0.0585,-0.0186 -0.11106,-0.0323 -0.15357,-0.0509 0.003,0.0611 0.0148,0.11926 0.0328,0.17632 -0.0139,0.0845 -0.004,0.10779 -0.0789,0.16399 -0.013,0.0155 -0.029,0.0301 -0.0489,0.0493 0.0608,0.0179 0.10507,0.0501 0.13741,0.0891 0.0206,-0.0195 0.0368,-0.0377 0.0555,-0.054 0.0542,-0.0303 0.10025,-0.0371 0.13305,-0.0232 0.0984,-0.0307 0.1873,0.11927 0.20231,0.19752 0.0188,0.098 -0.0308,0.14749 -0.10945,0.16181 -0.0775,0.0826 -0.16909,0.0459 -0.11899,0.13237 v 0 c 0.0518,-0.0174 0.0232,-0.003 -0.0511,-0.015 -0.002,0.007 0,0.008 0,0.012 0.059,0.0285 0.12279,0.16795 0.0874,0.22586 -0.005,0.0104 -0.0109,0.0214 -0.0174,0.0333 -0.0442,0.0913 -0.0567,0.17777 -0.059,0.19255 0.01,0.0712 0.0275,0.1332 0.0402,0.17712 0.0732,0.11101 0.0627,0.12137 0.0572,-0.006 0.1043,0.22103 0.26647,0.60953 0.38434,0.74294 0.0674,0.043 0.0504,0.0752 -0.12867,-0.0415 -0.0502,-0.007 -0.0917,-0.0149 -0.12547,-0.0217 -0.11519,-0.0232 -0.10965,0.0663 -0.0507,0.15386 0.0714,0.0583 0.17407,0.088 0.34985,-0.0135 0.14067,-0.0234 0.29121,-0.0559 0.4351,-0.0826 v 0 c 0.0688,-0.006 0.13136,-0.0119 0.19107,-0.0163 0.23615,-0.13602 0.51846,-0.35271 0.65663,-0.63265 0.0402,-0.068 0.0753,-0.14515 0.10411,-0.23079 0.13995,0.21662 -0.012,0.14773 0.22564,-0.21586 0.0132,-0.0286 0.027,-0.0395 0.0403,-0.056 -0.002,0.004 -0.003,0.007 -0.005,0.0111 z m -3.32948,0.16925 c 0.002,-0.0213 0.002,-0.0328 0.003,-0.048 -0.007,0.009 -0.0132,0.007 -0.019,0.0106 0.007,0.0126 0.0132,0.0214 0.0178,0.0358 0,4.7e-4 0,10e-4 -0.002,0.002 z m -0.0197,-0.0392 c 0,-2.4e-4 -0.002,-2.4e-4 0.005,-0.0221 0.002,4.7e-4 -0.008,-0.002 -0.0102,-0.003 3e-5,0.0186 0.004,0.0137 0.009,0.013 0,0.004 -0.002,0.008 -0.003,0.0118 z m -0.0155,-0.0245 c 0.003,-0.0223 0.007,-0.0444 0.0116,-0.0663 v 0 c 0.01,-0.0409 0.0211,-0.0821 0.0356,-0.12409 -0.003,-9.3e-4 0.008,0.003 0.0155,-0.008 0,-4.7e-4 0.006,-0.0211 0.006,-0.0241 0.003,9.2e-4 -0.01,0.012 -0.0148,0.0195 1.7e-4,9.3e-4 0,2.3e-4 -0.006,0.025 0.002,4.7e-4 0.003,9.3e-4 -0.007,-0.003 -0.016,0.0222 -0.0357,0.0589 -0.0567,0.10554 v 0 c -0.006,0.0143 -0.012,0.0294 -0.0183,0.0454 0.013,0.0147 0.026,0.0251 0.0369,0.0416 0,-0.004 -0.002,-0.008 -0.002,-0.0122 z m -0.0322,-0.2274 c 0.0431,-0.073 0.0885,-0.14252 0.13844,-0.2045 -0.007,-0.027 -0.0167,-0.0545 -0.0353,-0.0957 -0.0319,0.0737 -0.0617,0.15851 -0.0884,0.25273 -0.008,0.027 -0.007,0.0304 -0.0151,0.0484 1.1e-4,-2.3e-4 0,-6.9e-4 0,-9.2e-4 z m 0.18599,-0.25998 v -4.6e-4 c 0.0144,-0.0282 0.0303,-0.0545 0.0497,-0.0819 -0.0134,0.0226 -0.0227,0.043 -0.0325,0.063 0,-7e-4 -0.002,-10e-4 0.0109,-0.009 0.0347,-0.0632 0.0755,-0.12024 0.11741,-0.17033 0.0246,-0.038 0.0508,-0.0751 0.0783,-0.1113 -0.0725,0.0811 -0.13087,0.16066 -0.17479,0.23022 0.0301,-0.0561 0.0631,-0.11094 0.0994,-0.1638 -0.0623,0.0787 -0.11505,0.1633 -0.15197,0.24897 0.002,-0.002 0.003,-0.004 0.005,-0.006 z m 0.72132,-0.59948 v 6.9e-4 c -0.004,-0.009 -0.0181,-0.0119 -0.0344,-0.0122 7e-5,-4e-5 0,9.3e-4 0,9.3e-4 0.005,0.009 0.0169,0.01 0.0355,0.0148 0,-0.001 0,-0.003 -0.002,-0.004 z m -0.0595,-0.0378 c 0.0176,-0.0124 0.0232,-0.0133 0.034,-0.0174 -0.0102,7e-5 -0.0216,0.004 -0.041,0.0133 0,-0.002 0.003,0.007 0.004,0.008 0,-0.001 0.002,-0.003 0.003,-0.004 z m 0.56022,0.63296 c 0.004,-0.006 0.007,-0.0113 0.0109,-0.0174 -2.3e-4,-4.6e-4 0,1.4e-4 0,1.4e-4 -0.004,0.007 -0.007,0.0115 -0.0111,0.0177 v -4.6e-4 z m -1.78475,-0.22675 c 0.0375,-0.0299 0.10064,-0.0797 0.17844,-0.13259 0.0309,-0.0637 0.0725,-0.13418 0.12532,-0.21013 v -6.9e-4 c -0.0144,0.01 -0.0282,0.0231 -0.0423,0.0351 0,6.9e-4 0.002,0.002 -0.0153,0.0125 0.002,0.002 -0.0185,0.0151 -0.0271,0.0248 -0.0171,0.0143 -0.0322,0.0297 -0.0485,0.0449 -0.0568,0.0538 -0.11412,0.10039 -0.17205,0.16279 -0.003,0.0273 -0.005,0.053 0,0.0691 0,-0.002 0.002,-0.004 0.003,-0.006 z m 1.34229,-0.41601 c 0.013,-2.3e-4 0.0174,0.007 0.0286,0.008 0,-0.003 0.0139,0.001 0.009,0.001 -0.0263,4.6e-4 -0.0408,-0.008 -0.062,-0.0121 v -0.002 c 0,-0.002 0.0157,-9.3e-4 0.0151,0.007 0.003,-4.6e-4 0.006,-0.001 0.01,-0.002 z m 0.10185,-0.24122 c 0.0162,-0.008 0.0151,-0.0141 0.0232,-0.021 -0.0137,-0.0173 -0.0176,-0.0355 -0.0102,-0.0548 0,7e-5 -0.0174,0.008 -0.0174,0.008 0.002,0.009 0.003,0.0192 0.006,0.0285 0.003,0.0122 -0.005,0.0271 -0.003,0.0398 0,-1.7e-4 0.002,-2.3e-4 0.002,-4.6e-4 z m -2.94437,2.88654 c -0.0263,-0.27763 -0.15084,-0.71582 -0.19054,-1.14729 -0.0418,-0.45476 -0.002,-0.82671 0.0632,-1.05044 2.3e-4,-9.2e-4 0,-0.002 0,-0.003 0.0146,-0.0679 0.0373,-0.13841 0.0609,-0.21079 -0.006,-0.0313 -0.0457,0.0466 -0.092,0.20433 -0.13615,0.40823 -0.1371,1.37303 -0.003,1.88132 0.0405,0.15547 0.10379,0.35666 0.14998,0.44224 v 0 0 0 0 c 0.006,0.008 0.009,0.0105 0.0113,0.006 0.002,-0.004 0.003,-0.008 0.004,-0.0119 0.002,-0.033 0,-0.0713 -0.004,-0.10955 -1.4e-4,-2.3e-4 0,-7e-4 0,-9.3e-4 z m 2.97108,-1.73472 v -9.3e-4 c 0.13214,0.0418 0.22229,0.12014 0.33934,0.16535 -0.0249,0.0498 -0.0681,0.0963 -0.11957,0.13868 0.005,-0.0214 0.005,-0.0478 -0.003,-0.0563 -0.008,-0.01 -0.0495,0.0109 -0.0786,0.0289 -0.0258,0.0164 -0.0438,0.0274 -0.0583,0.0394 0.0309,0.009 0.0648,0.0147 0.10088,0.0184 -0.062,0.0445 -0.13085,0.0799 -0.19684,0.10922 -0.0453,0.0343 -0.0919,0.0655 -0.1371,0.093 -0.24854,0.10472 -0.40902,0.0804 -0.45034,0.0196 -0.0421,-0.062 0.0247,-0.15673 0.24521,-0.27192 0.0197,-0.005 0.044,-0.0106 0.0715,-0.0173 0.0141,-0.007 0.0284,-0.0135 0.0437,-0.0208 0.0109,-0.0152 0.0282,-0.0329 0.0425,-0.0485 0.0113,0.005 0.0195,0.008 0.0284,0.0119 0.0353,-0.0172 0.0643,-0.0375 0.0839,-0.0561 0.0301,-0.0271 0.0262,-0.0505 0.04,-0.0744 0.0155,-0.0268 0.0258,-0.0825 0.0466,-0.0801 0,6.9e-4 0.002,0.001 0.003,0.002 z m 0.18187,0.33537 c 0.0157,-0.0123 0.0281,-0.0207 0.0388,-0.0306 -0.004,0.0176 -0.0153,0.0327 -0.0287,0.0323 0,0.001 -0.009,6.9e-4 -0.0139,0.003 0.002,-0.001 0.003,-0.003 0.004,-0.004 z m 0.57859,-2.21216 c 0.0181,0.0112 0.0516,0.016 0.0332,0.006 0,1e-5 -0.002,1e-5 -0.002,1e-5 0.002,-1e-5 -0.0315,-0.006 -0.0316,-0.006 -3e-5,-1.4e-4 -3e-5,-2.3e-4 -3e-5,-4.6e-4 z m 0.60101,0.12605 c 0.21202,0.10485 0.23731,0.22074 0.3767,0.20424 0.007,-0.007 -0.0904,-0.0907 -0.13522,-0.12054 -0.0593,-0.0388 -0.11799,-0.0734 -0.17268,-0.10029 -0.0239,-0.006 -0.0346,-0.003 -0.0602,-0.009 -0.006,0.008 0.005,0.0247 1.6e-4,0.0319 l -0.009,-0.006 z m -2.01791,2.72231 c -2.3e-4,-0.001 0.004,0.0225 0.009,0.05 -0.007,-0.0372 -0.009,-0.051 -0.009,-0.05 z m 0.009,0.05 c 0.006,0.0359 0.0259,0.0946 0.0578,0.18028 0.0256,0.0383 0.0493,0.0773 0.0599,0.1192 0.002,0.008 0.002,0.008 5e-5,2.3e-4 0.003,0.0158 0.0169,0.0286 0.0206,0.0457 -0.0998,0.005 -0.19635,0.003 -0.28854,-0.006 -0.22246,0.01 -0.34309,-0.0502 -0.39046,-0.1026 -0.003,-0.003 -0.005,-0.007 -0.007,-0.01 -0.0268,0.003 -0.0537,0.004 -0.0805,0.005 -0.0468,1.5e-4 -0.11862,0.01 -0.24259,-0.008 -0.11778,-0.0166 -0.2112,-0.0498 -0.25695,-0.0679 -0.29598,-0.25489 -0.18442,-0.44375 -0.13685,-0.45832 0.086,-0.0264 0.18107,0.0759 0.3802,0.23275 0.01,0.0346 0.0151,0.0725 0.0477,0.11091 0.0732,0.0871 0.16865,0.14827 0.28018,0.16416 -0.007,-0.0297 0.007,-0.0569 0.033,-0.0807 v 0 c 0.0728,-0.0436 0.22535,-0.057 0.48306,-0.0897 0.0109,0.0121 0.0164,0.0256 0.0261,0.0374 0.0127,-0.0263 0.019,-0.0532 0.0192,-0.0744 -0.002,6.9e-4 -0.003,10e-4 -0.005,0.002 z m -0.0454,0.0372 c -0.0116,-0.0163 -0.0213,-0.0328 -0.0299,-0.0498 0.0111,0.0165 0.0232,0.0325 0.0348,0.049 0,7e-4 1.6e-4,0.001 1.6e-4,0.001 -0.002,-9e-5 -0.003,-1.9e-4 -0.005,-2.3e-4 z m 2.95722,-2.04115 c 0,-0.0234 0.11373,0.25634 0.1514,0.38025 0.0287,0.0934 0.0527,0.1878 0.0723,0.28739 -0.026,-0.31867 -0.10224,-0.48442 -0.0906,-0.48201 0.0116,0.002 0.13122,0.15731 0.2005,0.62799 v 0.003 0 c 0.006,0.0596 0.0114,0.11613 0.0137,0.16706 0.005,-0.0247 0.0113,-0.0229 0.0164,-0.0397 0.0644,0.33302 0.008,0.70896 -0.16156,1.03057 -0.17597,0.3245 -0.39542,0.53968 -0.53173,0.62136 -0.15063,0.0902 -0.15443,0.0184 -0.0386,-0.20703 0,-6.9e-4 0.0236,-0.0342 0.0281,-0.0367 -0.0651,-0.0178 -0.0123,-0.14214 0.10219,-0.41356 0.0384,-0.0376 0.0757,-0.0799 0.11188,-0.1249 v 0 c 0.0314,-0.0402 0.0603,-0.0817 0.0874,-0.12357 -0.009,-0.004 -0.0169,-0.007 -0.0325,0.008 -0.0123,0.0111 -0.0428,0.0587 -0.0752,0.10523 -0.0296,0.0414 -0.0575,0.079 -0.08,0.10598 0.0169,-0.0379 0.0337,-0.0781 0.0502,-0.12058 0.008,-0.0211 0.0162,-0.0433 0.024,-0.0665 0.0981,-0.15464 0.25945,-0.45744 0.28766,-0.88575 v 0 c 0.008,-0.26483 -0.0335,-0.54955 -0.13726,-0.83257 0,4.7e-4 -0.002,9.3e-4 -0.002,0.001 0.002,-0.002 0.003,-0.004 0.004,-0.005 z m -0.15389,1.7281 c -0.0125,0.0197 -0.0246,0.0377 -0.0358,0.0538 -0.10169,0.14386 -0.11617,0.16298 -0.0164,-0.008 v 0 c 0.0293,-0.0511 0.0704,-0.128 0.10938,-0.22535 -0.0188,0.0652 -0.0375,0.12757 -0.0571,0.17959 z m -0.0746,0.18685 c 0,-1.7e-4 -0.0158,0.0319 -0.0158,0.0319 0.002,10e-4 -0.0125,0.0122 -0.0178,0.0181 -0.0232,0.0261 0.003,-0.0167 0.0306,-0.0444 0,-0.002 0.002,-0.004 0.003,-0.006 z m -1.49173,-3.9105 c -0.13022,-0.055 -0.1919,-0.26075 0.63416,-0.0446 0.64771,0.16951 1.2417,0.55821 1.54824,1.09384 -0.0749,-2.3e-4 -0.21732,-0.0166 -0.1967,0.0922 0.007,0.0352 0.0202,0.079 0.0443,0.13841 0.0367,0.0645 0.0873,0.14595 0.152,0.25594 0.13052,0.22191 0.27108,0.46918 0.36069,0.79375 0,2.3e-4 0,-3e-5 0.0174,0.0469 0.0167,0.0469 0.0332,0.0903 0.0472,0.1588 -0.0132,-0.047 -0.0197,-0.046 -0.0431,-0.11362 0.002,-4.6e-4 0.003,0.0293 0.005,0.0451 0,2.3e-4 -0.002,1.1e-4 0.0125,0.0272 0.0215,0.0772 0.0418,0.19037 0.0555,0.22788 0.012,0.0517 -0.004,-0.0808 -0.0213,-0.15226 -1.2e-4,-0.001 0,-0.003 0,-0.003 0.0257,0.0619 0.0169,-0.0281 0.003,-0.18059 0.007,-0.0407 0.0174,-0.0688 0.0244,-0.10479 0.0614,0.068 0.13808,0.22134 0.19552,0.45039 0.0883,0.47558 0.0431,1.05962 -0.2272,1.57464 v 0 c -0.50394,0.91748 -1.13902,1.22181 -1.08834,1.00872 0.005,0.006 0.009,0.0104 0.0134,0.0155 0.0116,-0.019 0.0167,-0.0278 0.0104,-0.029 0.007,-0.0249 0.0102,-0.0458 0.0208,-0.0744 0.007,-0.0235 0.0393,-0.0702 0.0297,-0.0776 -0.007,-0.008 -0.0649,0.034 -0.10148,0.0547 0.029,-0.17643 0.38207,-0.59249 0.66246,-1.11994 0.24891,-0.48493 0.29695,-0.92936 0.32938,-1.31692 0.002,-0.0824 0.005,-0.14779 0.0118,-0.19512 -0.099,-0.25835 -0.34603,-0.8286 -0.55827,-1.16724 0.0499,0.0101 0.18516,0.13033 0.15473,0.0412 -0.0153,-0.0454 -0.0417,-0.0983 -0.0788,-0.15496 v 0 c -0.15202,-0.3071 -0.52585,-0.64863 -1.0472,-0.91134 -0.16548,-0.0843 -0.34286,-0.15632 -0.53095,-0.21571 -0.0811,-0.0349 -0.32588,-0.13841 -0.34411,-0.14598 -0.031,-0.007 -0.0623,-0.0127 -0.0938,-0.0186 z m 0.75333,4.231 c 0.13507,-0.0458 0.14765,0.0494 0.004,0.23807 -0.14182,0.18634 -0.39699,0.39462 -0.72007,0.52928 -0.14439,0.0626 -0.29405,0.10664 -0.43921,0.12685 0.007,-0.0458 0.0761,-0.13204 -0.14331,-0.0953 -0.0305,0.003 -0.074,0.0155 -0.11881,0.03 -0.0451,0.019 -0.0825,0.0375 -0.12897,0.055 0.0253,-0.0115 0.0421,-0.0242 0.0628,-0.0363 -0.043,0.0133 -0.0858,0.0242 -0.12485,0.0313 -0.0472,0.0133 -0.11336,0.0274 -0.18125,0.0404 -0.002,-0.008 0.012,-0.0155 0.0123,-0.0226 0.21687,-0.0786 0.38594,-0.17138 0.49601,-0.23921 -0.15582,0.0916 -0.32065,0.17217 -0.49386,0.23703 -0.002,-0.0112 0.0104,-0.0239 -0.005,-0.0289 -0.0976,-0.0777 -0.0811,-0.0377 -0.3669,-0.0628 -0.25927,-0.0655 -0.0875,-0.13375 0.0923,-0.1785 0.16629,-0.0414 0.56488,-0.12677 0.75806,-0.13663 0.0374,0.0163 0.0542,0.0621 0.26552,-0.0304 0.0435,-0.0178 0.0812,-0.0399 0.11644,-0.0632 0.004,-0.002 0.007,-0.004 0.0104,-0.007 v 0 c 0.0202,-0.0133 0.0336,-0.0235 0.0513,-0.0356 0.0227,-0.0147 0.0347,-0.0247 0.0497,-0.0353 1.1e-4,-5e-5 -0.0215,0.0144 -0.0209,0.0184 0.0654,-0.0372 0.15237,-0.0668 0.31437,-0.14932 -0.10294,0.0982 -0.21041,0.19156 -0.31689,0.27655 0.003,0.007 0.0176,0.004 0.0354,-7e-4 0.12311,-0.034 0.52096,-0.30264 0.60675,-0.37424 0.0822,-0.0426 0.13467,-0.0655 0.18403,-0.0847 2.1e-4,-9.3e-4 0,-0.002 0,-0.003 z m -1.77804,0.89258 c -9e-5,-4.6e-4 -1.8e-4,-0.001 -1.8e-4,-0.001 -0.0284,0.0114 -0.0652,0.0215 -0.0967,0.0326 -0.0284,0.0105 0.0169,0.003 0.0831,-0.0106 -0.0139,0.0255 -0.025,0.0498 0.0477,0.0291 0.065,-0.0195 0.12986,-0.0413 0.19425,-0.0652 -0.21669,0.11868 -0.22334,0.12477 -0.42722,0.0771 0.0669,-0.0215 0.13333,-0.0414 0.20106,-0.0674 0,0.002 -0.002,0.004 -0.002,0.005 z m 1.14451,-0.63175 c 0,9.3e-4 -0.15355,0.1161 -0.18211,0.14778 -1.3e-4,2e-5 0,-1e-4 0,-1e-4 0.0564,-0.043 0.11336,-0.0891 0.17009,-0.13881 0,-4.7e-4 0.0232,-0.0171 0.0232,-0.0171 -0.004,0.003 -0.008,0.005 -0.0114,0.008 z m -1.05621,0.87258 c 0.12601,0.0253 0.22857,0.13791 -0.25139,0.26134 -0.0367,-0.0124 -0.0447,-0.0309 -0.12809,-0.031 -0.0806,1.9e-4 -0.15389,0.0176 -0.20634,0.0292 -0.0734,0.009 -0.15088,0.0157 -0.20652,0.0243 0.0275,0.008 0.0818,0.0123 0.11262,0.0192 -0.0468,0.003 -0.10136,-7e-5 -0.15999,2.3e-4 0.0181,0.0335 0.22302,0.0772 0.29418,0.0944 0.0574,0.0101 0.088,0.0231 0.13172,0.0338 0.19464,0.0608 0.29904,0.0852 0.20993,0.11591 -0.0573,0.0197 -0.36827,0.0719 -0.85136,0.004 v 0 c -0.33579,-0.0564 -0.78587,-0.19817 -1.22023,-0.53509 -0.0866,-0.0648 -0.0263,-0.0627 -0.0374,-0.0896 -0.0727,-0.10658 -0.0839,-0.16741 -0.0576,-0.18532 0.003,0.048 0.16363,0.25909 0.29695,0.26567 0.0278,7e-4 0.049,-0.003 0.0864,0.004 0.026,0.007 0.0489,0.012 0.0557,0.007 -0.13326,-0.0706 -0.27323,-0.15987 -0.41193,-0.27264 -0.002,-7e-4 -0.002,-4.7e-4 -0.0276,-0.0233 0.0787,-0.0155 0.31576,0.14287 0.63713,0.28452 0.0123,-0.0236 0.003,-0.0587 0.002,-0.0893 -0.0183,-0.17491 -0.065,-0.0794 0.0834,-0.1861 0.23003,0.0801 0.45499,0.14076 0.69232,0.17608 0.40245,0.0571 0.7675,0.0565 0.94709,0.0931 0.003,-4.6e-4 0.006,-9.2e-4 0.009,-0.001 z m -2.363,-0.26929 c -0.0181,-0.008 -0.006,0.006 -0.009,0.009 -0.002,0.002 0.006,-0.007 0.009,-0.009 z m 1.67462,0.57128 c 0.45314,-0.009 0.50546,-0.0523 0.32586,0.0663 -0.0926,-0.0241 -0.20261,-0.0447 -0.32586,-0.0663 z m 2.76492,0.49485 c 0.1926,-0.0469 0.16743,0.13265 -0.32919,0.3981 -0.40394,0.2624 -0.97727,0.46738 -1.58458,0.47187 -0.21896,0.0271 -0.028,-0.0286 -0.11616,-0.0278 -0.0517,-2.3e-4 -0.14658,0.0205 -0.21561,0.0278 -0.13884,0.01 -0.18602,-0.005 -0.27075,-0.011 -0.0683,-0.007 -0.1787,-0.009 -0.27008,-0.018 -0.2188,-0.0229 -0.38789,-0.0609 -0.49831,-0.0951 -0.39215,-0.13161 -0.20084,-0.16524 0.0254,-0.16481 v 0 c 0.53641,-0.0345 0.87503,-0.002 1.74144,-0.13565 0.13043,-0.0126 0.11016,-0.01 0.11783,-0.0148 0.008,-0.005 0.0456,-0.013 0.278,-0.0797 0.1205,-0.0363 0.23548,-0.05 0.30608,-0.0682 0.1774,-0.0459 0.24523,-0.0717 0.366,-0.12805 0.0429,-0.0161 0.10696,-0.0411 0.18384,-0.0746 0.14475,-0.0478 0.18246,-0.0574 0.27761,-0.0862 -0.004,0.002 -0.008,0.004 -0.0116,0.006 z"
         id="path3272-0" />
    </g>
    <path
       style="fill:#0acbc9;fill-opacity:1;stroke:none;stroke-width:0.125494px;stroke-linecap:butt;stroke-linejoin:miter;stroke-opacity:1"
       d="m 157.71524,110.01649 c 0.0631,-0.0189 0.1264,-0.037 0.18872,-0.0542 0.19461,-0.0543 0.51609,-0.12888 0.70928,-0.17563 0.2439,-0.004 0.9959,-0.32397 1.01866,-0.33684 0.0528,-0.0298 -0.77605,0.30177 -1.02675,0.25921 -0.035,0.004 -0.0711,0.008 -0.10802,0.0124 -0.19893,-0.013 -0.43724,-0.0222 -0.60309,-0.025 -0.18781,-7.3e-4 -0.36463,0.006 -0.51472,0.0216 -1.7e-4,-0.005 0,-0.0105 -0.0312,-0.0142 -0.0311,-0.0156 -0.0316,-0.0332 -0.0322,-0.0502 -0.2397,-0.0282 -0.45731,-0.0287 -0.63398,-0.004 0,0 0,0 0,0 -0.18212,0.0291 -0.24808,0.055 -0.26204,0.0955 -0.0308,0.0753 0.0792,0.0392 0.10132,0.067 0.0221,0.0277 -0.0947,0.16068 -0.05,0.12932 0.005,0.006 0.0133,0.0135 0.0291,0.0195 0.0393,-0.0111 0.11763,-0.0247 0.20939,-0.0348 0.0439,-0.004 0.0937,-0.005 0.15577,-0.005 0.0244,-2.5e-4 0.0344,0.001 0.0518,0.002 0.0278,0.0149 0.0726,0.0292 0.13581,0.0427 -0.0636,0.0889 -0.0551,0.068 0.14562,-0.0177 0.0386,0.003 0.0771,0.006 0.11147,0.0111 0.34041,0.0471 0.35557,0.0512 0.22156,0.0397 -0.088,-0.007 -0.20072,-0.0177 0.17021,0.0172 0.004,-9e-5 0.008,-1.7e-4 0.0131,-2.5e-4 z m 0.075,-0.25753 c -0.032,0.001 -0.0365,7.2e-4 -0.0563,9.6e-4 0.0502,-0.0159 0.10322,-0.0324 0.16066,-0.0501 0,0 0,0 0,0 0.009,-0.003 0.0191,-0.006 0.029,-0.009 0,0.008 0.062,0.0149 0.048,0.0244 -0.0182,0.0119 -0.0442,0.0199 -0.0758,0.0251 -0.0305,0.005 -0.0661,0.007 -0.10596,0.008 5e-5,-5e-5 9e-5,-1.1e-4 1.6e-4,-1.6e-4 z m -0.37285,-1.91487 c -0.13634,-0.0852 -0.27762,-0.15514 -0.35962,-0.16582 -0.0769,-0.0105 -0.13105,0.0372 -0.0266,0.19607 0.0417,0.0341 0.34286,0.23264 0.39193,0.26655 0.0762,0.0528 0.12755,0.10424 0.20193,0.14977 0.14743,0.0903 0.26803,0.13538 0.41817,0.16889 0.3294,0.006 0.32095,-0.14699 0.2827,-0.1834 -0.0612,-0.0583 -0.23292,-0.093 -0.4999,-0.1476 -0.017,2.5e-4 -0.0184,0.004 -0.0277,0.007 -0.0218,0.005 -0.0336,0.0224 -0.0717,0.0146 -0.0631,-0.0127 -0.23909,-0.10539 -0.17782,-0.12966 0.023,-0.009 0.0925,0.0175 0.13763,0.0234 -0.0804,-0.0736 -0.17717,-0.14258 -0.26884,-0.19978 -1.1e-4,-2e-5 -2.1e-4,-3e-5 0,-6e-5 z m 1.51387,-0.0296 c -0.0373,0.0484 -0.0735,0.10297 -0.10557,0.16183 0.0262,0.0614 0.0473,0.0321 -0.0683,0.12222 -0.0837,0.10962 -0.0876,0.1811 0.0206,0.18088 0.0967,-2.1e-4 0.2616,-0.0886 0.35026,-0.27954 0.0115,-0.13933 -0.0332,-0.0239 0.0809,-0.19535 0.044,-0.15795 -0.015,-0.19413 -0.0674,-0.17796 -0.0582,0.0181 -0.13854,0.0945 -0.21046,0.18789 z m -0.28565,-1.03699 c 0.0483,-0.0302 0.0263,-0.0652 -0.0264,-0.0622 0.18608,-0.0201 0.38117,-0.0485 0.53603,-0.0545 0.095,-0.003 0.17945,-7.2e-4 0.24993,0.0138 0.0441,0.0172 0.0746,0.0207 0.0834,0.0138 0.009,-0.007 -0.007,-0.0262 -0.0613,-0.0537 -0.0392,-0.0648 -0.0651,-0.088 -0.0707,-0.0848 0.004,-10e-4 0.0179,0.0105 0.0397,0.0292 0,0 0,0 0,0 0.0805,0.13106 0.11709,0.4455 0.15626,0.68527 0.0555,0.16234 0.0772,0.31296 0.10739,0.42862 -0.11617,0.27578 -0.26815,0.57636 -0.26742,0.68108 -0.2373,0.20377 -0.5142,0.33763 -0.78033,0.34995 -0.3378,0.0737 -0.71824,0.003 -1.08708,-0.16314 -0.25436,-0.11484 -0.32602,-0.007 -0.33624,0.086 -0.004,0.0609 0.35237,0.23505 0.34335,0.29079 -0.0198,0.0652 -0.2576,0.0274 -0.43638,-0.003 -0.1794,-0.10977 -0.34779,-0.23839 -0.50035,-0.37997 -0.003,0.10445 -0.005,0.16068 -0.0104,0.21513 -0.25297,-0.1139 -0.45283,-0.24419 -0.64795,-0.3693 -0.0243,-0.0202 -0.0483,-0.0368 -0.0708,-0.0505 -0.14129,0.0107 -0.22088,0.0948 -0.19293,0.27845 0.0695,0.41529 0.75728,1.3741 2.09427,1.60376 -0.40571,0.0487 -0.85353,0.0276 -1.31311,-0.0917 0.72449,0.26459 0.54224,0.1456 0.49617,0.1115 0.38505,0.28152 1.0017,0.51462 1.76785,0.48098 0.0431,0.005 0.0741,0.0106 0.11165,0.0149 -0.58708,0.0655 -0.92891,0.0454 -1.33099,0.0412 -0.24899,-0.002 -0.48883,0.0291 -0.0534,0.19339 0.0513,0.007 0.30666,0.0283 0.26104,0.0477 0,0.009 -0.1004,0.003 -0.14738,0.004 0.3978,0.1563 1.02124,0.18502 1.62859,0.0297 0.75139,-0.24258 0.93355,-0.54946 0.78442,-0.53458 1.21146,-0.53128 2.0297,-1.72265 2.12271,-3.08567 0.0193,-0.27043 0.0163,-0.56095 -0.0206,-0.86615 0.0235,-0.10159 0.0285,-0.31628 -0.0133,-0.59079 -0.0647,-0.47339 -0.33668,-0.96107 -0.73543,-1.31008 -0.0659,-0.0482 -0.12751,-0.0873 -0.18327,-0.11784 0,10e-4 -0.002,0.002 -0.003,0.003 -0.63896,-0.4746 -1.10705,-0.45322 -0.87846,-0.27089 -0.0459,-0.0119 -0.0719,-0.0149 -0.0943,-0.0174 -0.009,-0.003 -0.14251,-0.0441 -0.21106,-0.0614 -0.0393,-0.011 -0.0924,-0.0256 -0.157,-0.0412 -0.0446,-0.0105 -0.09,-0.019 -0.13416,-0.0269 -0.14198,-0.0377 -0.25343,-0.0663 -0.34108,-0.0949 -0.14002,-0.0459 -0.0784,-0.0844 -0.11948,-0.12613 -0.26532,-0.0373 -0.50571,-0.0366 -0.70202,-0.0185 0,0 0,0 0,0 -0.547,0.0519 -0.87418,0.24695 -0.94568,0.33045 -0.10384,0.12126 0.12569,0.0108 0.64378,-0.0508 0.10142,-0.0225 0.20524,-0.0405 0.31131,-0.053 0.16719,-0.0217 0.34825,-0.04 0.54769,-0.0338 0.0381,0.001 0.0768,0.003 0.11939,0.006 -0.43074,0.007 -0.43672,0.10266 -0.23229,0.14268 -0.15677,-4.8e-4 -0.30392,0.0112 -0.42872,0.0316 0,0 0,0 0,0 -0.25601,0.0362 -0.43212,0.11619 -0.48584,0.17651 0,0.002 0.0474,-0.005 0.0505,-0.003 -0.48952,0.15551 -0.65303,0.38151 -0.63154,0.44232 -0.11603,0.0685 -0.22312,0.14893 -0.31941,0.23859 -0.19914,0.17846 -0.34804,0.37987 -0.44963,0.57338 0.0532,-0.16775 0.0198,-0.24603 -0.16618,-0.0574 0.0484,-0.0985 0.10709,-0.2047 0.1792,-0.31453 0.0988,-0.14081 0.20078,-0.2597 0.29707,-0.35861 0,0 0,0 0,0 0.40632,-0.43696 0.72945,-0.53607 0.75572,-0.55804 0.0263,-0.0221 -0.22068,0.0413 -0.57588,0.29055 -0.0507,0.0266 -0.10111,0.0565 -0.1504,0.0893 -0.0332,0.004 -0.0809,0.0235 -0.13668,0.0572 -0.41421,0.23385 -0.82884,0.83937 -0.93275,1.42368 -0.0522,0.2539 -0.0127,0.37484 0.0446,0.3146 0.0157,-0.0522 0.0323,-0.10329 0.0513,-0.15356 -0.002,0.0494 0.009,0.0519 0.0209,0.0568 -0.0431,0.16684 -0.0688,0.36167 -0.0594,0.57785 0.0131,0.22159 0.0546,0.44146 0.13319,0.64953 0.0408,0.10786 0.0864,0.20296 0.132,0.28508 0.17161,0.25348 0.35685,0.41772 0.54111,0.54043 0.0388,0.0266 0.0531,0.0274 0.0854,0.0455 0,-0.001 0.002,-0.002 0.0382,0.0253 -0.003,0.003 -0.0405,-0.0224 -0.0425,-0.0195 -0.0939,-0.0337 -0.0442,0.0537 -0.0267,0.11329 0.0186,0.0948 0.0554,0.15001 0.2642,0.32702 0.20936,0.14319 0.43274,0.23765 0.65176,0.28801 0,0 0,0 0,0 0.4658,0.14609 0.92657,0.0675 1.25457,-0.0724 0,0 0,0 0,0 0.29544,-0.14497 0.37793,-0.28014 0.33563,-0.29383 0.51258,-0.41421 0.0114,-0.1895 -0.15208,-0.11823 0.13341,-0.11663 0.15058,-0.19324 0.10194,-0.20105 -0.0543,-0.008 -0.18713,0.0576 -0.45436,0.12214 0,0 0,0 0,0 -0.13547,0.0286 -0.30098,0.0498 -0.49083,0.0391 -0.0817,-0.004 -0.13692,-0.0127 -0.14711,-0.0143 -0.004,-7.2e-4 -0.0922,-0.0142 -0.20066,-0.0469 -0.0279,-0.007 -0.0553,-0.0161 -0.0821,-0.025 0,0 0,0 0,0 -0.60309,-0.17946 -0.95877,-0.47181 -1.19888,-0.69147 -0.0439,-0.0645 -0.0858,-0.13293 -0.12498,-0.20605 -0.0538,-0.11417 -0.0968,-0.23216 -0.12972,-0.3538 0.0391,0.11709 0.0906,0.23132 0.15503,0.34027 0.12653,0.19184 0.28181,0.34859 0.45636,0.47465 0.30887,0.20594 0.47963,0.23542 0.48853,0.19961 0.0363,0.006 0.0404,-0.002 0.0459,-0.011 0.11244,0.0476 0.22831,0.0846 0.3445,0.11188 0.15382,0.0391 0.31404,0.0531 0.47099,0.0381 0,0.014 -0.0357,0.0294 -0.0487,0.043 0.0536,0.0535 0.21518,0.0939 0.44289,0.0477 0.25051,-0.0575 0.5116,-0.21219 0.70918,-0.4595 0,0 0,0 0,0 0.28375,-0.35986 0.38954,-0.76304 0.39282,-1.02457 0.0657,-0.50871 -0.0668,-0.6141 -0.10608,-0.58196 -0.074,0.0605 -0.12627,0.30911 -0.25171,0.66084 -0.003,-7.3e-4 0.004,-0.0324 0.003,-0.0394 0.0714,-0.25105 0.0822,-0.50855 0.0564,-0.70319 -0.0254,-0.18094 -0.0804,-0.28671 -0.13669,-0.26491 -0.10496,0.006 -0.0915,0.005 -0.13551,0.008 -0.11628,-0.21034 -0.2034,-0.30344 -0.27173,-0.26957 -0.0738,0.0365 -0.11497,0.19576 -0.25538,0.50608 0,0 0,0 0,0 -0.0775,0.1439 -0.19433,0.34306 -0.32991,0.47353 -0.048,0.0461 -0.089,0.19115 -0.17095,0.25324 -0.0284,0.0194 -0.0349,0.0389 0.002,0.004 0.0518,-0.005 0.028,-0.04 0.0297,-0.0803 -0.004,-0.006 -0.0115,-0.0123 -0.0216,-0.0156 -0.1764,-0.11938 -0.29989,-0.164 -0.2751,-0.16172 0.015,-0.007 0.037,-0.0131 0.0675,-0.0148 0.0707,0.041 0.18842,0.0239 0.27291,0.0141 0,0 0,0 0,0 0.008,-0.004 0.0175,-0.007 0.0268,-0.0106 -0.0447,-0.10075 -0.0309,-0.11702 -0.016,-0.11128 0.0147,0.005 0.0441,0.003 0.16155,-0.0945 0,-7.3e-4 0.002,-0.002 0.003,-0.002 0,0 0,0 0,0 0.0138,-0.004 0.0247,-0.0105 0.0337,-0.015 0.002,-0.001 0.002,-0.002 0.003,-0.003 z m -2.01506,1.54036 c -0.0343,0.25376 -0.12723,0.45542 -0.31381,0.60274 -0.0403,0.0207 -0.0718,0.0375 -0.0958,0.0503 -0.11066,0.035 -0.0578,0.005 -0.0554,0.009 0,0.002 -0.0104,0.0301 0.0509,-0.0125 0.0126,-0.005 0.0279,-0.0112 0.0468,-0.0179 0.0589,-0.0209 0.15751,-0.0597 0.23433,-0.0815 0.0393,-0.0162 0.0727,-0.0312 0.10101,-0.0458 0.12634,-0.0655 0.10799,-0.11473 -0.0145,-0.14453 0,0 0,0 0,0 -0.10758,-0.0247 -0.30177,-0.0374 -0.44542,-0.007 -0.13966,0.056 -0.0808,0.009 -0.0364,-0.008 0,0 0,0 0,0 0.14625,-0.11354 0.21206,-0.27904 0.23326,-0.53866 -0.0216,-0.0751 -0.0219,-0.12582 -0.0106,-0.15621 0,0.0256 0.009,0.0773 0.0398,0.15292 -0.003,0.0929 -0.0116,0.17273 -0.0252,0.24312 -0.005,0.0277 0.0223,-0.007 0.0364,-0.1177 0.005,-0.0399 0.007,-0.0824 0.008,-0.12765 0,0 0,0 0,0 0,0 0,0 0,0 0,0 0,0 0,0 -0.0298,-0.0715 -0.0481,-0.1191 -0.0535,-0.14536 0,-0.0668 0.0456,-0.0247 0.076,0.0215 0,0 0,0 0,0 0.21794,0.15257 0.21575,0.018 0.14642,-0.12657 -0.0114,-0.14571 -0.0223,-0.0933 0.0931,0.22063 0,0.0818 -0.006,0.1597 -0.0159,0.23326 2e-4,-0.001 0,-0.002 0,-0.004 z m 0.26615,-1.64 c -0.004,-9.7e-4 -0.008,-0.002 -0.0133,-0.003 0.005,-0.0303 0.0104,-0.0564 0.0175,-0.0831 -0.003,0.0347 -0.006,0.0685 -0.007,0.1 0,-0.004 0.002,-0.009 0.003,-0.0139 z m 0.009,-0.10943 c -0.002,-4.9e-4 -0.003,-7.4e-4 -0.004,-0.001 0,-9e-5 2e-4,-0.003 0,-0.007 0.003,-0.012 0.008,-0.0303 0.0126,-0.0459 0.002,7.4e-4 -0.005,0.032 -0.007,0.0465 -1e-4,2.4e-4 -1.9e-4,7.2e-4 0,9.7e-4 0,0.002 -0.002,0.004 -0.002,0.006 z m 0.014,-0.0849 c -0.0258,0.0261 -0.0413,0.0267 -0.0621,0.0382 -0.002,0.009 -0.005,0.0177 -0.006,0.0234 -0.003,0.0113 -0.006,0.0239 -0.009,0.0359 -0.002,-4.9e-4 -0.003,-9.7e-4 -0.006,-0.001 -7e-5,-3e-5 0.005,-0.0195 0.0104,-0.0357 0,0 0,0 0,0 0,0 0,0 0,0 0.002,-0.005 0.003,-0.009 0.004,-0.0136 0,2.4e-4 0.002,7.3e-4 0.003,9.8e-4 0,-1.6e-4 0.008,-0.0319 0.007,-0.0322 0.0242,-0.0635 0.0575,-0.13051 0.10228,-0.1974 -0.0214,0.0678 -0.0372,0.13213 -0.0484,0.19158 0,-0.003 0.002,-0.006 0.003,-0.009 z m 0.0653,-0.35358 c -0.0633,0.0917 -0.12107,0.1931 -0.17037,0.30336 0.0127,-0.0674 0.0398,-0.18367 0.0973,-0.33087 0.0175,0.009 0.0366,0.0195 0.058,0.0311 0.004,0.002 0.007,0.004 0.0104,0.005 0.002,-0.003 0.003,-0.006 0.005,-0.009 z m -0.21456,0.41086 c -1.1e-4,-4e-5 0,-1.5e-4 0,-1.5e-4 -0.006,-0.002 -0.0223,0.0315 -0.0344,0.0502 0.005,10e-4 0.0106,0.002 0.0252,-0.0294 0,-1.5e-4 -0.0104,0.0332 -0.0108,0.0331 -0.0239,0.0282 -0.0492,0.0727 -0.0717,0.12529 -0.0108,-0.002 -0.0275,0.0319 -0.0386,0.032 0.0343,-0.0678 0.0684,-0.12524 0.0985,-0.17166 -0.0147,-0.004 -0.0382,0.0268 -0.0567,0.0392 0.0331,-0.053 0.066,-0.0907 0.0903,-0.0979 0,0 0,0 0,0 0,0 0,0 0,0 0,0 0,0 0,0 0,0 0,0 0,0 0,0 0,0 0,0 0,0 0,0 0,0 0.002,-5.1e-4 0.003,-7.5e-4 0.004,-9.9e-4 -2.2e-4,7.4e-4 0,0.001 0,0.002 -0.002,0.006 -0.003,0.0121 -0.005,0.0182 z m -0.16316,1.04345 c 2e-5,-1e-5 0,4.8e-4 0,4.8e-4 -0.0209,-0.0545 -0.0392,-0.11039 -0.0518,-0.16687 3e-5,-10e-6 3e-5,-10e-6 5e-5,-10e-6 0.0114,0.0421 0.0329,0.11206 0.057,0.1778 -0.002,-0.004 -0.003,-0.007 -0.004,-0.0112 z m -0.096,-0.36188 c -0.003,2.4e-4 -0.006,7.2e-4 -0.0104,9.6e-4 -0.003,-0.0379 -0.002,-0.0551 -5e-5,-0.0734 0,-7e-5 0.005,0.0391 0.008,0.0566 0,0.005 0.002,0.0105 0.002,0.0156 z m 3.37617,0.30802 c -0.009,0.0341 -0.0184,0.0682 -0.029,0.10223 -5e-5,-1e-5 -9e-5,-3e-5 -1.4e-4,-5e-5 0.0108,-0.0351 0.0212,-0.0703 0.0306,-0.10565 0,0.001 0,0.002 -0.002,0.003 z m -0.82785,-2.75474 c -0.1258,-0.004 -0.29178,-0.005 -0.52133,0.004 0,0 0,4e-5 0,4e-5 0,-0.0152 -0.002,-0.0311 -0.002,-0.0485 -2e-5,-4.8e-4 -6e-5,-0.002 -8e-5,-0.002 0,0 0,0 0,0 0,0 0,0 0,0 0.0333,7.3e-4 0.0518,10e-4 0.0788,0.002 2e-5,0.001 0.0341,4.9e-4 0.0341,0.001 2e-5,4.9e-4 0.0358,4.9e-4 0.0528,10e-4 0.034,7.3e-4 0.0667,0.002 0.10101,0.002 0.12313,0.004 0.25969,0.011 0.40699,0.0233 -0.0441,0.004 -0.0883,0.0105 -0.13342,0.0165 -0.005,-2.4e-4 -0.0111,-4.8e-4 -0.0168,-7.3e-4 z m -2.49115,2.77216 c 0.0133,0.0417 0.0275,0.0814 0.0425,0.11849 0.0143,0.0383 0.0138,0.0386 0.0143,0.0384 -0.0297,-0.0745 -0.0584,-0.15229 -0.0814,-0.23983 1.2e-4,-3e-5 0,-7e-5 0,-1.4e-4 0.008,0.0294 0.0165,0.0577 0.0221,0.0754 0,0.002 0.002,0.005 0.002,0.007 z m -0.13545,-1.02453 c 0.006,-0.0405 0.004,-0.0495 0.006,-0.0723 0.002,-0.008 0.004,-0.0175 0.006,-0.0263 0,0 0,0 0,0 0.0265,-0.10715 0.0561,-0.20473 0.0841,-0.28969 0.002,7.2e-4 0.002,10e-4 0.004,0.002 -0.0186,0.0521 -0.0359,0.10668 -0.0498,0.16038 -0.0114,0.0429 -0.0218,0.0862 -0.031,0.12979 -0.006,0.0256 -0.0111,0.0513 -0.016,0.0774 -0.002,0.006 -0.003,0.0126 -0.005,0.019 z m 1.92545,3.92826 c 0.41675,-0.019 0.5026,-0.025 0.41969,0.0602 -0.0634,0.0651 -0.24196,0.14497 -0.21715,0.16659 0,0.008 0.002,0.0169 0.0415,0.0213 -0.32859,0.066 -0.36713,-0.13052 -0.48396,-0.19205 -0.0391,-0.0178 -0.11809,-0.0479 0,-0.0485 0.0994,-7.4e-4 0.18811,-0.004 0.26025,-0.008 -0.007,2.4e-4 -0.0143,7.3e-4 -0.0216,9.7e-4 z m -0.11255,-6.82575 c 0,2e-5 0,2e-5 0,-3e-5 0.66988,0.0778 1.27996,0.42369 1.68096,0.97464 0.0852,0.12329 0.1608,0.2514 0.22681,0.38339 0.0417,0.0242 0.0676,0.0158 0.0505,-0.0721 -0.0119,-0.017 -0.13319,-0.19797 -0.14697,-0.21908 -0.0262,-0.0405 -0.0522,-0.089 -0.0731,-0.13066 -0.0186,-0.0338 -0.0357,-0.0656 -0.0466,-0.0872 -0.0225,-0.0445 -0.0336,-0.0693 -0.0348,-0.0814 0.039,0.0477 0.0763,0.0971 0.1118,0.14836 0,0 0,0 0,0 0.0682,0.10455 0.1298,0.21225 0.18483,0.32279 -0.0115,-0.0761 -0.0515,-0.19486 -0.12049,-0.333 8e-5,-0.009 0,-0.0198 -0.002,-0.0313 -0.0586,-0.27006 -0.46585,-0.77507 -1.08446,-1.02059 -0.62133,-0.24661 -1.0872,-0.12059 -0.98095,-0.0441 0.0696,0.009 0.16167,0.0236 0.26648,0.0503 0,0.007 -0.05,0.009 -0.0509,0.0185 0.0648,0.006 0.13174,0.0146 0.20006,0.0271 0.0616,0.0231 0.10919,0.0465 0.10672,0.0567 -0.003,0.0147 -0.1271,-9.8e-4 -0.17757,0.004 -0.04,0.005 -0.2722,0.0141 -0.14596,0.029 0.0122,10e-4 0.0242,0.003 0.0362,0.004 z m 1.96686,1.26602 c -0.005,0.002 0.009,0.0444 0.004,0.0469 0.028,0.0409 0.05,0.068 0.015,-0.007 0,0 -0.0189,-0.0399 -0.023,-0.0478 0.002,0.003 0.003,0.005 0.004,0.008 z m -0.47814,-0.60015 c -0.0315,-0.008 -0.0489,-0.0149 0.0419,0.002 0,3e-5 0,5e-5 0,5e-5 0,0.002 0,0.003 -0.0419,-0.002 z m 0.74168,0.069 c 0.0465,-0.002 -0.056,-0.0557 -0.0779,-0.0735 -0.0232,-0.0188 0.0273,-0.0441 0.39186,0.14912 0.0642,0.0336 0.10755,0.0858 0.0979,0.0896 -0.006,0.009 -0.0122,0.0183 -0.0661,-0.004 -0.0528,-0.0277 -0.10417,-0.0519 -0.15409,-0.0734 -0.0713,-0.0373 -0.13706,-0.0669 -0.1939,-0.089 0,2.4e-4 0.002,7.2e-4 0.002,9.6e-4 z m 0.27601,0.94109 c -1.3e-4,5e-5 0.054,0.14751 0.10448,0.32862 -0.0656,-0.24715 -0.10709,-0.33774 -0.10448,-0.32862 z m 0.10448,0.32862 c 0.0499,0.18755 0.1265,0.53221 0.12702,0.9657 0,0 0,0 0,0 0.006,0.0884 0.009,0.18443 0.006,0.28738 -0.009,0.30196 -0.0591,0.6106 -0.15036,0.91895 -0.0119,0.04 -0.0212,0.0728 0.003,9.8e-4 -0.035,0.11466 -0.0774,0.23452 -0.12931,0.35841 0.10935,-0.19978 0.19837,-0.4026 0.26771,-0.60507 0.12299,-0.27255 0.19094,-0.61441 0.18238,-0.95596 0.002,-0.0334 0.003,-0.0668 0.003,-0.0999 0.0108,5e-5 0.0221,6e-5 0.0311,0.0471 0.004,0.008 0.0111,0.0273 0.0196,0.0541 0.052,0.13158 0.13269,0.47178 0.14583,0.55583 0.0523,-0.15081 0.0888,-0.34124 0.0965,-0.54966 0.0662,-0.54652 -0.0429,-1.11937 -0.23958,-1.56444 -0.22836,-0.51702 -0.3059,-0.43954 -0.25387,-0.1624 0.081,0.21348 0.14748,0.42321 0.18226,0.62181 0.0745,0.42425 0.0499,0.72407 0.016,0.86586 -0.0258,-0.65185 -0.24975,-1.1157 -0.25566,-0.59096 0.0204,0.0983 0.0362,0.19637 0.0485,0.29403 -0.0274,-0.14565 -0.0579,-0.28235 -0.0967,-0.42389 -0.002,-0.006 -0.002,-0.0119 -0.004,-0.0177 z m 0.0491,0.13093 c -0.0272,-0.12902 -0.0603,-0.25506 -0.0996,-0.37763 0.0406,0.12959 0.0733,0.25729 0.0992,0.38218 0,-8e-5 0,-8e-5 0,-1.7e-4 -2.1e-4,-0.001 0,-0.003 0,-0.004 z m -0.15898,-1.48227 c 0.0845,0.0473 -0.28018,-0.16391 -0.37542,-0.2118 -0.0656,-0.0334 -0.14364,-0.0666 -0.18345,-0.0884 0.35423,0.11147 0.68624,0.33335 0.69387,0.33754 0.0632,0.0347 0.0172,-0.0231 -0.10845,-0.15331 0.003,-0.006 0.006,-0.0126 -0.0448,-0.0462 0.0516,0.0263 0.10238,0.0532 0.14925,0.08 0.2417,0.0943 0.33797,0.10673 0.11467,-0.0847 -0.1896,-0.1626 -0.52804,-0.36311 -0.91658,-0.43741 -0.47932,-0.11027 -0.92161,-0.11574 -1.18743,-0.0474 0,0.002 2e-5,0.004 2e-5,0.006 -0.1551,0.007 -0.28951,0.026 -0.39588,0.0494 -0.22074,0.0364 -0.3748,0.093 -0.44298,0.13734 0.15035,-0.0291 0.29969,-0.0468 0.44639,-0.0552 0.073,-0.002 0.14561,-0.002 0.21796,-0.002 -0.0477,0.006 -0.0962,0.0106 -0.14987,0.0133 -0.0189,9.8e-4 -0.0421,0.002 -0.0676,0.002 -0.17788,0.009 -0.32103,0.0272 -0.45985,0.0499 0.002,0.0105 -0.0542,0.035 -0.0514,0.0467 0.13112,-0.0251 0.30464,-0.05 0.51287,-0.0583 0.26194,9.7e-4 0.84327,0.0108 1.50745,0.17143 0,0 0,0 0,0 0.20077,0.0417 0.42574,0.1193 0.66301,0.24794 -1.1e-4,2.4e-4 -1.1e-4,2.4e-4 -1.1e-4,2.4e-4 0.0261,0.0135 0.0522,0.0277 0.0782,0.0423 z m -2.69874,-0.41763 c -0.56264,0.0962 -0.55712,0.093 0.006,0.0289 -0.002,-0.0105 -0.004,-0.0195 -0.006,-0.0289 z m 0.053,-0.0458 c 0,-0.002 0,-0.004 0,-0.005 -1e-4,-4.8e-4 -0.0602,0.0118 -0.0633,0.0119 -0.0811,0.0156 -0.06,0.0134 0.0613,-0.005 0,-2.3e-4 0.002,-5.1e-4 0.003,-7.5e-4 z m 2.72496,6.25063 c -0.469,0.43997 -0.8575,0.67845 -0.91451,0.7784 -0.005,0.008 0.18173,0.1616 0.90056,-0.38278 0.36485,-0.34098 0.63829,-0.71451 0.8885,-1.15315 0.1498,-0.26262 0.23847,-0.46412 0.3492,-0.70743 0.0854,-0.18767 0.12272,-0.20771 0.17687,-0.30862 0,1.6e-4 0.002,5e-4 0.002,5e-4 0.004,0.001 -0.002,0.049 0.0159,0.004 -0.003,-9.8e-4 0.006,-0.0533 0.007,-0.0894 0,1.4e-4 0.0129,-0.0487 0.014,-0.051 0,1.4e-4 0.002,4.8e-4 -0.0104,0.0495 0.007,0.002 0.017,0.004 0.009,0.0548 -0.0104,0.0495 -0.0251,0.0695 -0.0325,0.0801 0,-7e-5 0,-1.4e-4 0,-2.4e-4 -0.0104,0.0676 -0.037,0.15292 -0.11612,0.3483 -0.0439,0.12388 -0.0935,0.24747 -0.14987,0.36996 -0.23597,0.59177 -0.46122,1.01925 -0.0262,0.53025 0.30753,-0.34565 0.72972,-1.09448 0.76041,-2.10378 0,-0.0518 0,-0.10507 0,-0.15983 0,0.0425 -0.002,0.0841 -0.003,0.1249 0,-0.0395 -0.002,-0.0479 -0.003,-0.0701 -0.002,-0.0713 -0.004,-0.14379 -0.009,-0.21636 -0.004,-0.0627 -0.0143,-0.11091 -0.0184,-0.19461 -0.004,-0.0746 -0.002,-0.16528 -0.005,-0.2549 -0.11019,-0.84313 -0.24021,-0.67509 -0.2515,-0.5631 -0.0247,0.24587 -0.0193,0.80792 -0.059,1.30933 -0.002,0.0195 -0.003,0.0392 -0.004,0.0589 -0.002,-0.0227 -0.003,-0.0426 -0.006,-0.0596 0,0 0,0 0,0 -0.0147,-0.069 -0.0392,-0.0722 -0.0665,-0.004 -0.0259,0.0826 -0.055,0.2441 -0.111,0.48728 -0.0235,0.18948 -0.0438,0.38372 -0.11903,0.60299 -0.23069,0.67175 -0.53845,0.87242 -0.66952,0.99087 -0.0622,0.0564 -0.12611,0.11322 -0.19419,0.16925 -0.12047,0.13374 -0.24021,0.25423 -0.35675,0.36325 0.002,-10e-4 0.003,-0.002 0.004,-0.003 z m -5.17299,-3.93297 c 0.22801,-0.72683 0.52439,-1.13362 0.53891,-1.25506 0.0145,-0.12144 -0.32691,0.005 -0.71024,0.86252 -0.0369,0.10711 -0.0724,0.22973 -0.10508,0.36603 -0.0745,0.27062 -0.11578,0.56977 -0.12606,0.90474 -0.003,0.0895 -0.004,0.12778 -0.008,0.18243 -0.0104,4.8e-4 -0.0242,-0.066 -0.0343,-0.0657 0.009,0.0631 0.0184,0.0841 0.0276,0.11666 0,0.0678 -0.008,0.0687 -0.009,0.10692 0.002,0.0733 -0.008,0.0805 -0.0138,0.12445 0.0143,0.067 0.0308,0.12964 0.0477,0.18973 0.0995,0.19926 0.20465,0.37601 0.30116,0.52527 -0.11175,-0.16073 -0.21223,-0.33155 -0.29709,-0.51184 0.031,0.1093 0.0635,0.20541 0.0931,0.2914 0.0609,0.17629 0.12701,0.3241 0.17865,0.43155 0.14038,0.21537 0.39807,0.57263 0.58706,0.77902 0.63657,0.64256 1.1298,0.69265 1.24131,0.67235 0.11148,-0.0203 -0.13309,-0.0536 -0.76016,-0.53287 -0.26129,-0.18488 -0.49513,-0.40343 -0.61923,-0.62244 -0.034,-0.0545 -0.0269,-0.0602 -0.0198,-0.0655 0.005,-0.003 0.009,-0.006 0.0127,-0.009 0.003,-0.002 0.006,-0.005 0.0104,-0.007 -0.002,0.001 -0.003,0.002 -0.005,0.004 -0.0244,-0.0469 -0.0964,-0.14994 -0.20397,-0.34691 -0.0286,-0.0714 -0.0588,-0.15328 -0.0873,-0.24413 -0.0687,-0.0866 -0.13966,-0.19879 -0.206,-0.32669 -0.0168,-0.0618 -0.0301,-0.11958 -0.0388,-0.17176 -0.0672,-0.39143 0.0377,-0.69578 0.0667,-0.79095 0.0247,-0.20377 0.0691,-0.38889 0.12424,-0.55494 0.007,-0.0241 0.0147,-0.0477 0.0221,-0.071 -0.002,0.006 -0.004,0.0132 -0.006,0.0201 z m -0.3842,1.56677 c 0,7e-5 0,1.3e-4 0,2.4e-4 -0.007,0.002 -0.0294,-0.0634 -0.0415,-0.083 -0.008,0.002 -0.0136,-0.0707 -0.007,-0.10349 -0.0516,-0.22075 -0.068,-0.40863 -0.053,-0.40225 0.0138,-4.8e-4 0.0268,-7.4e-4 0.0452,0.0662 -0.0488,-0.21859 -0.0535,-0.35644 -0.0632,-0.32762 -0.009,0.0289 -0.0454,0.21997 0.0383,0.69179 0.0294,0.0689 0.0602,0.13745 0.0942,0.20475 -0.004,-0.0155 -0.007,-0.0311 -0.0114,-0.0465 z m 0.46987,0.50752 c 0,-4.9e-4 -0.0667,-0.0459 -0.11382,-0.13581 -9e-5,5e-5 -1.2e-4,6e-5 0,1.1e-4 0.0381,0.0567 0.0718,0.0897 0.10844,0.13071 0.002,-9.7e-4 0.003,-10e-4 0.003,-10e-4 0,0.002 0.002,0.004 0.003,0.006 z m -0.22079,-2.83545 c 0.25888,-0.49764 0.54493,-0.84554 0.80726,-1.14841 0.0793,-0.0988 0.15059,-0.18261 0.20285,-0.25145 -0.0857,0.0657 -0.16392,0.13847 -0.23917,0.21055 -0.0367,0.0322 -0.0696,0.061 -0.095,0.0802 -0.0682,0.0512 -0.0193,-0.0175 0.0177,-0.0689 0.0172,-0.0244 0.0255,-0.0406 0.0355,-0.0586 0,0 0,0 0,0 0,0 0,0 0,0 0,0 0,0 0,0 0.0104,-0.0199 0.0228,-0.0422 0.0488,-0.0743 0.0496,-0.0401 0.10102,-0.0802 0.15557,-0.12002 -0.004,-0.006 -0.009,-0.0127 -0.0152,-0.02 0.19006,-0.16282 0.67939,-0.41746 0.87892,-0.49262 0.14628,-0.0548 0.29783,-0.10338 0.45533,-0.14224 0.25514,-0.0648 0.49442,-0.0991 0.70113,-0.11734 0,0 0,0 0,0 0.35196,-0.0276 0.52428,-0.0209 0.5007,-0.0556 -0.02,-0.0299 -0.22394,-0.0855 -0.50918,-0.14825 -0.18793,-0.009 -0.39471,-0.009 -0.61485,0.005 -0.11106,0.007 -0.36608,0.0947 -0.56444,0.17056 -0.4524,0.16413 -0.77885,0.38325 -1.00521,0.58153 0.14,-0.11805 0.31906,-0.23725 0.48641,-0.32118 0.22614,-0.11339 0.10688,-0.0362 -0.0593,0.076 -0.1137,0.0773 -0.21943,0.15656 -0.30903,0.23693 -0.0525,0.0469 -0.0971,0.0902 -0.1342,0.12776 -0.0143,-0.0177 -0.0296,-0.0372 -0.0967,-0.0126 0,-9.8e-4 -0.002,-0.002 -0.002,-0.002 -0.0357,0.035 -0.0687,0.0695 -0.0994,0.10308 0,0 0,0 0,0 -0.34772,0.35018 -0.43787,0.58056 -0.38703,0.59673 -0.14433,0.19731 -0.28012,0.41004 -0.39813,0.64532 -0.26628,0.53079 -0.28398,0.7094 -0.31231,0.81329 -0.0172,0.0552 -0.0412,0.14009 -0.0645,0.26538 -0.0186,0.0998 -0.079,0.43296 -0.0353,0.88275 0.0745,0.26749 0.10917,0.14204 0.13408,-0.0565 0.0305,-0.24226 0.0661,-0.60107 0.22236,-1.01536 0,0 0,0 0,0 0.0783,-0.22746 0.17271,-0.45279 0.28837,-0.67704 0.002,-0.004 0.004,-0.008 0.006,-0.0121 z m 0.65673,-1.55553 c 0.0497,-0.0459 0.0591,-0.056 0.0871,-0.081 -0.0502,0.0424 -0.0751,0.0677 -0.0871,0.081 z m 0.27319,0.12738 c 0.1118,0.0148 0.17414,-0.13165 0.77755,-0.44213 -0.32735,0.13874 -0.5834,0.29924 -0.77755,0.44213 z m 5.37675,6.31018 c -0.49079,0.58847 -0.91947,0.9191 -0.97938,1.03503 -0.0599,0.11592 0.30577,0.0542 0.97204,-0.59918 0.11079,-0.086 0.187,-0.21984 0.27039,-0.31342 0.0531,-0.0593 0.0131,0.0106 0.0554,-0.0311 0.059,-0.0503 0.12973,-0.15107 0.20974,-0.25363 0.0547,-0.0706 0.11554,-0.14687 0.163,-0.21251 0.53897,-0.76278 0.69933,-1.58782 0.70331,-2.05731 0.003,-0.43395 -0.0321,-0.36817 -0.29042,0.46985 -0.0603,0.2154 -0.0583,0.19676 -0.0556,0.18102 0.003,-0.0157 0.005,-0.0277 -0.0849,0.18032 -0.0471,0.10889 -0.15392,0.38416 -0.20957,0.49883 -0.15344,0.31577 -0.24395,0.43583 -0.38641,0.61786 -0.12259,0.17802 -0.24704,0.33919 -0.36711,0.48321 -2e-4,2.4e-4 0,7.2e-4 0,9.6e-4 z"
       id="path3276-8" />
    <path
       d="m 158.17955,105.01672 q 0.47232,0.0359 0.70347,0.44328 0.25265,0.38957 0.15077,1.14203 -0.2064,1.52424 -1.31103,2.49294 -0.21767,0.19788 -0.46328,0.17922 -0.18893,-0.0143 -0.31918,-0.18018 -0.13286,-0.14654 -0.10674,-0.33949 0.0287,-0.21223 0.20079,-0.3551 0.56176,-0.48363 0.79852,-1.24535 -0.41042,-0.0702 -0.65725,-0.3618 -0.22531,-0.3095 -0.16522,-0.75327 0.0653,-0.48235 0.39051,-0.76954 0.3441,-0.28574 0.77864,-0.25274 z"
       style="font-style:normal;font-variant:normal;font-weight:normal;font-stretch:normal;font-size:28.6393px;line-height:1.25;font-family:Nunito;-inkscape-font-specification:'Nunito, Normal';font-variant-ligatures:normal;font-variant-caps:normal;font-variant-numeric:normal;font-variant-east-asian:normal;letter-spacing:-2.01669px;word-spacing:0px;fill:#ffffff;fill-opacity:1;stroke:none;stroke-width:0.0456996"
       id="path4126" />
    <path
       d="m 160.82977,105.2443 q 0.47233,0.0359 0.70348,0.44328 0.25264,0.38955 0.15076,1.14203 -0.20639,1.52422 -1.31103,2.49293 -0.21767,0.19789 -0.46328,0.17923 -0.18893,-0.0143 -0.31918,-0.18019 -0.13286,-0.14653 -0.10673,-0.33948 0.0287,-0.21225 0.20079,-0.3551 0.56176,-0.48364 0.79851,-1.24535 -0.41042,-0.0702 -0.65725,-0.3618 -0.22531,-0.30951 -0.16522,-0.75328 0.0652,-0.48235 0.39052,-0.76953 0.34409,-0.28575 0.77863,-0.25274 z"
       style="font-style:normal;font-variant:normal;font-weight:normal;font-stretch:normal;font-size:28.6393px;line-height:1.25;font-family:Nunito;-inkscape-font-specification:'Nunito, Normal';font-variant-ligatures:normal;font-variant-caps:normal;font-variant-numeric:normal;font-variant-east-asian:normal;letter-spacing:-2.01669px;word-spacing:0px;fill:#ffffff;fill-opacity:1;stroke:none;stroke-width:0.0456996"
       id="path4128" />
    <path
       d="m 159.38409,102.44374 c -0.10669,-0.042 -0.15954,-0.13658 0.10152,-0.15948 0.22154,-0.0551 0.6488,-0.0706 1.15754,0.0969 0.0395,0.0286 0.2775,0.2224 0.35715,0.26762 0.12156,0.0701 0.30958,0.1575 0.44499,0.24532 0.27385,0.17779 0.4081,0.30799 0.5578,0.46205 0.002,0.13973 -0.38216,-0.0462 -0.79016,-0.21911 -0.3998,-0.1694 -0.87749,-0.34449 -0.92527,-0.46394 0.0297,1.4e-4 0.0325,-0.006 0.0669,-0.004 0.0548,-0.003 0.16189,0.0114 0.16874,-0.005 0.006,-0.0311 -0.21843,-0.14488 -0.44363,-0.14028 -0.0969,0.001 -0.0691,0.0371 -0.1004,0.0547 -0.22888,-0.0427 -0.37118,-0.0651 -0.49076,-0.0951 v 0 c -0.0408,-0.0154 -0.0771,-0.0282 -0.10689,-0.0399 7e-5,1.9e-4 0.002,-8e-5 0.003,-1.2e-4 z"
       style="fill:#a826cb;fill-opacity:1;stroke:none;stroke-width:0.143484px;stroke-linecap:butt;stroke-linejoin:miter;stroke-opacity:1"
       id="path479" />
    <path
       d="m 161.49269,102.51825 c -0.0414,-0.0503 -0.0675,-0.0948 -0.0571,-0.12257 0.29668,0.0619 -0.0103,0.0226 7.5e-4,-0.1034 -0.003,-0.037 0.0848,-0.0173 0.12915,-0.0249 0.42753,0.11078 0.9789,0.53239 1.35508,1.03135 0.41225,0.54687 0.38514,0.76971 0.13844,0.57279 -0.0139,-0.0523 0.003,-0.0687 -0.0424,-0.15428 -0.0184,-0.0328 -0.0782,-0.0857 -0.0723,-0.0628 0.003,0.0273 0.0552,0.11511 0.0844,0.17527 -0.0602,0.0788 -0.34316,-0.21497 -0.66757,-0.5158 -0.32763,-0.3038 -0.7169,-0.6137 -0.8643,-0.79244 -0.002,-5.6e-4 -0.002,-0.003 -0.003,-0.004 z"
       style="fill:#a826cb;fill-opacity:1;stroke:none;stroke-width:0.143484px;stroke-linecap:butt;stroke-linejoin:miter;stroke-opacity:1"
       id="path652" />
  </g>
</svg>
